/* XPM */
static char * ddrescueview_xpm[] = {
"32 32 12 1",
" 	c None",
".	c #000000",
"+	c #6F6F6F",
"@	c #777777",
"#	c #5F5F5F",
"$	c #C5C5C5",
"%	c #007C00",
"&	c #FF0000",
"*	c #6A1691",
"=	c #A20000",
"-	c #00FFF0",
";	c #8E8E8E",
"  ............................  ",
" .++++++++++++++++++++++++++++. ",
".@@@@@@@@@@@@@@@@@@@@@@@@@@@@@@.",
".##############################.",
".$$$$$$$$$$$$$$$$$$$$$$$$$$$$$$.",
".%%$%%$%%$&&$**$&&$&&$&&$&&$%%$.",
".%%$%%$%%$&&$**$&&$&&$&&$&&$%%$.",
".$$$$$$$$$$$$$$$$$$$$$$$$$$$$$$.",
".%%$%%$%%$**$&&$&&$**$**$**$&&$.",
".%%$%%$%%$**$&&$&&$**$**$**$&&$.",
".$$$$$$$$$$$$$$$$$$$$$$$$$$$$$$.",
".&&$%%$%%$%%$%%$%%$%%$%%$%%$%%$.",
".&&$%%$%%$%%$%%$%%$%%$%%$%%$%%$.",
".$$$$$$$$$$$$$$$$$$$$$$$$$$$$$$.",
".%%$%%$%%$%%$==$%%$%%$%%$%%$**$.",
".%%$%%$%%$%%$==$%%$%%$%%$%%$**$.",
".$$$$$$$$$$$$$$$$$$$$$$$$$$$$$$.",
".**$%%$%%$%%$%%$==$%%$%%$%%$%%$.",
".**$%%$%%$%%$%%$==$%%$%%$%%$%%$.",
".$$$$$$$$$$$$$$$$$$$$$$$$$$$$$$.",
".%%$%%$%%$==$==$==$%%$%%$%%$%%$.",
".%%$%%$%%$==$==$==$%%$%%$%%$%%$.",
".$$$$$$$$$$$$$$$$$$$$$$$$$$$$$$.",
".%%$%%$%%$%%$%%$%%$%%$%%$%%$%%$.",
".%%$%%$%%$%%$%%$%%$%%$%%$%%$%%$.",
".$$$$$$$$$$$----$$$$$$$$$$$$$$$.",
".%%$%%$%%$%%-;;-;;$;;$;;$;;$;;$.",
".%%$%%$%%$%%-;;-;;$;;$;;$;;$;;$.",
".$$$$$$$$$$$----$$$$$$$$$$$$$$$.",
".##############################.",
".##############################.",
"................................"};
